[{
        "coord": {
            "lon": 145.77,
            "lat": -16.92
        },
        "weather": [{
            "id": 802,
            "main": "Clouds",
            "description": "scattered clouds",
            "icon": "03n"
        }],
        "base": "stations",
        "main": {
            "temp": 300.15,
            "pressure": 1007,
            "humidity": 74,
            "temp_min": 300.15,
            "temp_max": 300.15
        },
        "visibility": 10000,
        "wind": {
            "speed": 3.6,
            "deg": 160
        },
        "clouds": {
            "all": 40
        },
        "dt": 1485790200,
        "system": {
            "type": 1,
            "id": 8166,
            "message": 0.2064,
            "country": "IN",
            "sunrise": 1485720272,
            "sunset": 1485766550
        },
        "id": 2930,
        "name": "india",
        "cod": 200
    },
    {
        "coord": {
            "lon": 145.77,
            "lat": -16.92
        },
        "weather": [{
            "id": 802,
            "main": "Clouds",
            "description": "scattered clouds",
            "icon": "03n"
        }],
        "base": "stations",
        "main": {
            "temp": 430.15,
            "pressure": 467,
            "humidity": 34,
            "temp_min": 141.15,
            "temp_max": 234.15
        },
        "visibility": 10000,
        "wind": {
            "speed": 3.6,
            "deg": 160
        },
        "clouds": {
            "all": 40
        },
        "dt": 1485790200,
        "system": {
            "type": 1,
            "id": 8166,
            "message": 0.2064,
            "country": "us",
            "sunrise": 1485720272,
            "sunset": 1485766550
        },
        "id": 2931,
        "name": "us",
        "cod": 200
    }
]